Debug						0
InputFilePath					./sampleFiles/*
OutputFileName					./merged_output.root
CalculateOpticalFunctions			1
CalculateOpticalFunctionsFileName		./output_merged.dat
# Object      treeName	   Histogram Name    # Bins     Binning     variable            selection
Histogram1D   Event.	   Primaryx          {100}      {-0.1:0.1}  Primary.x           1
Histogram1D   Options.	   seeds	      {200}      {0:200}     Options.GMAD::OptionsBase.seed 1
Histogram1D   Model.      componentLength   {100}      {0:100}     Model.length        1
Histogram1D   Event.      eventDuration     {1000}     {0:1000}    Info.duration       1
